Opinion spread · Agents.jl
…
agent_step! (generic function with 1 method)
Running the model
First, we create a stopping condition, which runs the model until all agents stabilize.

rununtil(model, s) = count(a -> a.stabilized, allagents(model)) == length(positions(model))

rununtil (generic function with 1 method)
Then we create our model, run it and collect some information

model = create_model(nopinions = 3, levels_per_opinion = 4)

agentdata, _ = run!(model, agent_step!, dummystep, rununtil, adata = [(:stabilized, count)])

(329×2 DataFrame
 Row │ step   count_stabilized
     │ Int64  Int64
─────┼─────────────────────────
   1 │     0                 0
   2 │     1                74
   3 │     2                83
   4 │     3                79
   5 │     4                76
   6 │     5                79
   7 │     6                77
   8 │     7                70
  ⋮  │   ⋮           ⋮
 323 │   322                80
 324 │   323                85
 325 │   324                82
 326 │   325                90
 327 │   326                92
 328 │   327                97
 329 │   328               100
               314 rows omitted, 0×0 DataFrame)
…
